…
## What is the average daily activity pattern?

1. Make a time series plot of the 5-minute interval (x-axis) and the average number of steps taken, averaged across all days (y-axis)


```r
daily_pattern <- activity %>% 
                 group_by(interval) %>% 
                 summarize(average_steps = mean(steps, na.rm = TRUE))

daily_pattern
```

```
## # A tibble: 288 x 2
##    interval average_steps
##       <int>         <dbl>
##  1        0        1.72  
##  2        5        0.340 
##  3       10        0.132 
##  4       15        0.151 
##  5       20        0.0755
##  6       25        2.09  
##  7       30        0.528 
##  8       35        0.868 
##  9       40        0     
## 10       45        1.47  
## # ... with 278 more rows
```
…
